Analysis of COVID Vaccine Distribution in Pennsylvania
…
---

# `vaccine_pop`

We essentially repeated the steps above for the population dataframe, but with a little bit more mutating...

```r
vaccine_pop <- vaccine_pop %>%
  mutate(week = as.Date(week, "%m/%d/%y"))
vaccine_pop
```

```
## # A tibble: 1,915 x 14
##    location week       first_dose second_dose vaccine white_prop black_prop
##    <chr>    <date>          <dbl>       <dbl> <chr>        <dbl>      <dbl>
##  1 Connect… 2020-04-05      10.9            0 janssen      0.657      0.1
##  2 Maine    2020-04-05       9.93           0 janssen      0.932      0.014
##  3 Massach… 2020-04-05      11.6            0 janssen      0.705      0.07
##  4 New Ham… 2020-04-05       9.93           0 janssen      0.898      0.013
##  5 Rhode I… 2020-04-05       9.69           0 janssen      0.705      0.059
##  6 Vermont  2020-04-05       9.18           0 janssen      0.928      0.011
##  7 New Jer… 2020-04-05      11.8            0 janssen      0.545      0.124
##  8 New York 2020-04-05      12.0            0 janssen      0.552      0.14
##  9 Delaware 2020-04-05       9.57           0 janssen      0.614      0.218
## 10 Distric… 2020-04-05       9.29           0 janssen      0.367      0.45
## # … with 1,905 more rows, and 7 more variables: asian_prop <dbl>,
## #   hispanic_prop <dbl>, population <dbl>, white <dbl>, black <dbl>,
## #   asian <dbl>, hispanic <dbl>
```
…
# Section 3: Evaluate Model

---

# Evaluate Model

```r
vaccine_train_pred <- predict(vaccine_fit, vaccine_train) %>%
  bind_cols(data = vaccine_train %>% select(first_dose, location))
vaccine_train_pred
```

```
## # A tibble: 1,437 x 3
##    .pred first_dose location
##    <dbl>      <dbl> <chr>
##  1  9.72      10.9  Connecticut
##  2  8.54       9.93 Maine
##  3 10.3       11.6  Massachusetts
##  4  8.63       9.69 Rhode Island
##  5  7.93       9.18 Vermont
##  6 10.5       11.8  New Jersey
##  7 11.2       12.0  New York
##  8  8.56       9.57 Delaware
##  9 10.8       12.0  Pennsylvania
## 10  8.78      10.2  West Virginia
## # … with 1,427 more rows
```
…
---

```r
vaccine_test_pred <- predict(vaccine_fit, vaccine_test) %>%
  bind_cols(data = vaccine_test %>% select(first_dose, location))
vaccine_test_pred
```

```
## # A tibble: 478 x 3
##    .pred first_dose location
##    <dbl>      <dbl> <chr>
##  1  8.73       9.93 New Hampshire
##  2  8.06       9.29 District of Columbia
##  3 10.1       11.4  Maryland
##  4 10.5       11.7  Virginia
##  5  9.21      10.7  Mississippi
##  6  9.51      10.7  Iowa
##  7  8.25       9.66 Montana
##  8  8.14       9.33 North Dakota
##  9  8.23       9.43 South Dakota
## 10  7.77       9.05 Wyoming
## # … with 468 more rows
```
…
